{
    "name": "templates",
    "creationDate": {
        "$$date": 1630521790568
    },
    "modificationDate": {
        "$$date": 1630521790568
    },
    "shortid": "4vexxWp",
    "_id": "ewqFuY6ml901Bo74",
    "$entitySet": "folders"
}